<svg width="121" height="34" viewBox="0 0 121 34" fill="none" xmlns="http://www.w3.org/2000/svg">
<rect width="121" height="34" rx="17" fill="#00A5F4"/>
<path d="M23.276 22V13.88H20.476V12.2H27.98V13.88H25.096V22H23.276ZM28.6232 22V14.622H30.3172L30.3452 16.974L30.1072 16.442C30.2099 16.0687 30.3872 15.7327 30.6392 15.434C30.8912 15.1353 31.1806 14.902 31.5072 14.734C31.8432 14.5567 32.1932 14.468 32.5572 14.468C32.7159 14.468 32.8652 14.482 33.0052 14.51C33.1546 14.538 33.2759 14.5707 33.3692 14.608L32.9072 16.498C32.8046 16.442 32.6786 16.3953 32.5292 16.358C32.3799 16.3207 32.2306 16.302 32.0812 16.302C31.8479 16.302 31.6239 16.3487 31.4092 16.442C31.2039 16.526 31.0219 16.6473 30.8632 16.806C30.7046 16.9647 30.5786 17.1513 30.4852 17.366C30.4012 17.5713 30.3592 17.8047 30.3592 18.066V22H28.6232ZM35.6358 25.22L37.2038 21.594L37.2178 22.742L33.5778 14.622H35.5658L37.5958 19.438C37.6611 19.5593 37.7265 19.7227 37.7918 19.928C37.8571 20.124 37.9131 20.32 37.9598 20.516L37.6098 20.628C37.6751 20.4507 37.7451 20.264 37.8198 20.068C37.8945 19.8627 37.9645 19.6527 38.0298 19.438L39.7658 14.622H41.7678L38.6878 22L37.4278 25.22H35.6358ZM47.6292 22V13.964C47.6292 13.516 47.7272 13.1193 47.9232 12.774C48.1192 12.4193 48.3899 12.144 48.7352 11.948C49.0806 11.7427 49.4819 11.64 49.9392 11.64C50.2566 11.64 50.5506 11.696 50.8212 11.808C51.0919 11.9107 51.3206 12.0553 51.5072 12.242L50.9752 13.544C50.8539 13.4413 50.7232 13.362 50.5832 13.306C50.4526 13.25 50.3266 13.222 50.2052 13.222C50.0186 13.222 49.8599 13.2547 49.7292 13.32C49.6079 13.376 49.5146 13.4647 49.4492 13.586C49.3932 13.7073 49.3652 13.852 49.3652 14.02V22H48.4972C48.3292 22 48.1706 22 48.0212 22C47.8812 22 47.7506 22 47.6292 22ZM46.4812 16.288V14.776H51.0312V16.288H46.4812ZM55.5539 22.14C54.8165 22.14 54.1585 21.9767 53.5799 21.65C53.0012 21.314 52.5439 20.8567 52.2079 20.278C51.8719 19.6993 51.7039 19.0413 51.7039 18.304C51.7039 17.5667 51.8719 16.9087 52.2079 16.33C52.5439 15.7513 53.0012 15.2987 53.5799 14.972C54.1585 14.636 54.8165 14.468 55.5539 14.468C56.2819 14.468 56.9352 14.636 57.5139 14.972C58.0925 15.2987 58.5452 15.7513 58.8719 16.33C59.2079 16.9087 59.3759 17.5667 59.3759 18.304C59.3759 19.0413 59.2079 19.6993 58.8719 20.278C58.5452 20.8567 58.0925 21.314 57.5139 21.65C56.9352 21.9767 56.2819 22.14 55.5539 22.14ZM55.5539 20.614C55.9552 20.614 56.3099 20.5113 56.6179 20.306C56.9352 20.1007 57.1825 19.8253 57.3599 19.48C57.5465 19.1347 57.6352 18.7427 57.6259 18.304C57.6352 17.856 57.5465 17.4593 57.3599 17.114C57.1825 16.7687 56.9352 16.498 56.6179 16.302C56.3099 16.0967 55.9552 15.994 55.5539 15.994C55.1525 15.994 54.7885 16.0967 54.4619 16.302C54.1445 16.498 53.8972 16.7733 53.7199 17.128C53.5425 17.4733 53.4539 17.8653 53.4539 18.304C53.4539 18.7427 53.5425 19.1347 53.7199 19.48C53.8972 19.8253 54.1445 20.1007 54.4619 20.306C54.7885 20.5113 55.1525 20.614 55.5539 20.614ZM60.9162 22V14.622H62.6102L62.6382 16.974L62.4002 16.442C62.5029 16.0687 62.6802 15.7327 62.9322 15.434C63.1842 15.1353 63.4735 14.902 63.8002 14.734C64.1362 14.5567 64.4862 14.468 64.8502 14.468C65.0089 14.468 65.1582 14.482 65.2982 14.51C65.4475 14.538 65.5689 14.5707 65.6622 14.608L65.2002 16.498C65.0975 16.442 64.9715 16.3953 64.8222 16.358C64.6729 16.3207 64.5235 16.302 64.3742 16.302C64.1409 16.302 63.9169 16.3487 63.7022 16.442C63.4969 16.526 63.3149 16.6473 63.1562 16.806C62.9975 16.9647 62.8715 17.1513 62.7782 17.366C62.6942 17.5713 62.6522 17.8047 62.6522 18.066V22H60.9162ZM71.232 22V12.2H73.052V22H71.232ZM72.072 17.982V16.33H77.126V17.982H72.072ZM72.072 13.88V12.2H77.728V13.88H72.072ZM79.3185 22V14.622H81.0125L81.0405 16.974L80.8025 16.442C80.9052 16.0687 81.0825 15.7327 81.3345 15.434C81.5865 15.1353 81.8759 14.902 82.2025 14.734C82.5385 14.5567 82.8885 14.468 83.2525 14.468C83.4112 14.468 83.5605 14.482 83.7005 14.51C83.8499 14.538 83.9712 14.5707 84.0645 14.608L83.6025 16.498C83.4999 16.442 83.3739 16.3953 83.2245 16.358C83.0752 16.3207 82.9259 16.302 82.7765 16.302C82.5432 16.302 82.3192 16.3487 82.1045 16.442C81.8992 16.526 81.7172 16.6473 81.5585 16.806C81.3999 16.9647 81.2739 17.1513 81.1805 17.366C81.0965 17.5713 81.0545 17.8047 81.0545 18.066V22H79.3185ZM88.3547 22.14C87.58 22.14 86.894 21.9767 86.2967 21.65C85.7087 21.3233 85.2467 20.88 84.9107 20.32C84.584 19.7507 84.4207 19.102 84.4207 18.374C84.4207 17.7953 84.514 17.268 84.7007 16.792C84.8873 16.316 85.144 15.9053 85.4707 15.56C85.8067 15.2053 86.2033 14.9347 86.6607 14.748C87.1273 14.552 87.636 14.454 88.1867 14.454C88.672 14.454 89.1247 14.5473 89.5447 14.734C89.9647 14.9207 90.3287 15.1773 90.6367 15.504C90.9447 15.8213 91.178 16.204 91.3367 16.652C91.5047 17.0907 91.584 17.5713 91.5747 18.094L91.5607 18.696H85.5827L85.2607 17.52H90.1187L89.8947 17.758V17.45C89.8667 17.1607 89.7733 16.9087 89.6147 16.694C89.456 16.47 89.2507 16.2973 88.9987 16.176C88.756 16.0453 88.4853 15.98 88.1867 15.98C87.7293 15.98 87.342 16.0687 87.0247 16.246C86.7167 16.4233 86.4833 16.68 86.3247 17.016C86.166 17.3427 86.0867 17.7533 86.0867 18.248C86.0867 18.724 86.1847 19.1393 86.3807 19.494C86.586 19.8487 86.8707 20.124 87.2347 20.32C87.608 20.5067 88.042 20.6 88.5367 20.6C88.882 20.6 89.1993 20.544 89.4887 20.432C89.778 20.32 90.0907 20.1193 90.4267 19.83L91.2807 21.02C91.0287 21.2533 90.7393 21.454 90.4127 21.622C90.0953 21.7807 89.7593 21.9067 89.4047 22C89.05 22.0933 88.7 22.14 88.3547 22.14ZM96.5578 22.14C95.7831 22.14 95.0971 21.9767 94.4998 21.65C93.9118 21.3233 93.4498 20.88 93.1138 20.32C92.7871 19.7507 92.6238 19.102 92.6238 18.374C92.6238 17.7953 92.7171 17.268 92.9038 16.792C93.0905 16.316 93.3471 15.9053 93.6738 15.56C94.0098 15.2053 94.4065 14.9347 94.8638 14.748C95.3305 14.552 95.8391 14.454 96.3898 14.454C96.8751 14.454 97.3278 14.5473 97.7478 14.734C98.1678 14.9207 98.5318 15.1773 98.8398 15.504C99.1478 15.8213 99.3811 16.204 99.5398 16.652C99.7078 17.0907 99.7871 17.5713 99.7778 18.094L99.7638 18.696H93.7858L93.4638 17.52H98.3218L98.0978 17.758V17.45C98.0698 17.1607 97.9765 16.9087 97.8178 16.694C97.6591 16.47 97.4538 16.2973 97.2018 16.176C96.9591 16.0453 96.6885 15.98 96.3898 15.98C95.9325 15.98 95.5451 16.0687 95.2278 16.246C94.9198 16.4233 94.6865 16.68 94.5278 17.016C94.3691 17.3427 94.2898 17.7533 94.2898 18.248C94.2898 18.724 94.3878 19.1393 94.5838 19.494C94.7891 19.8487 95.0738 20.124 95.4378 20.32C95.8111 20.5067 96.2451 20.6 96.7398 20.6C97.0851 20.6 97.4025 20.544 97.6918 20.432C97.9811 20.32 98.2938 20.1193 98.6298 19.83L99.4838 21.02C99.2318 21.2533 98.9425 21.454 98.6158 21.622C98.2985 21.7807 97.9625 21.9067 97.6078 22C97.2531 22.0933 96.9031 22.14 96.5578 22.14Z" fill="white"/>
</svg>
