<svg width="48" height="48" viewBox="0 0 48 48" fill="none" xmlns="http://www.w3.org/2000/svg">
<path d="M35.8833 16.0002C34.8872 7.0002 27.2654 0 18.0002 0C8.05888 0 0.000244141 8.05863 0.000244141 18C0.000244141 27.2652 7.00044 34.887 16.0004 35.883V48H48.0002V16.0002H35.8833ZM16.0004 31.8396C9.227 30.8652 4.00044 25.0386 4.00044 18C4.00044 10.2792 10.2818 4.0002 18.0002 4.0002C25.0389 4.0002 30.8654 9.22676 31.8399 16.0002H16.0004V31.8396ZM31.8399 19.9998C30.9591 26.1168 26.117 30.9594 20 31.8396V19.9998H31.8399ZM44 43.9998H20V35.883C28.3418 34.959 34.9593 28.3423 35.8833 19.9998H44V43.9998Z" fill="#00A5F4"/>
</svg>
