<svg width="49" height="48" viewBox="0 0 49 48" fill="none" xmlns="http://www.w3.org/2000/svg">
<g clip-path="url(#clip0_245_19859)">
<path d="M26.667 16.0001V35.9999H0.667236V47.9999H48.6672V16.0001H26.667ZM44.667 43.9997H4.66743V40.0001H30.6672V19.9997H44.667V43.9997Z" fill="#00A5F4"/>
<path d="M0.667236 0V31.9998H22.6674V12H48.6672V0H0.667236ZM44.667 7.9998H18.6672V28.0002H4.66743V4.0002H44.667V7.9998Z" fill="#00A5F4"/>
</g>
<defs>
<clipPath id="clip0_245_19859">
<rect width="48" height="48" fill="white" transform="translate(0.666748)"/>
</clipPath>
</defs>
</svg>
